^C:\USERS\XUXIC\ONEDRIVE\PROJECT\CG-CS113\DRAWLINE\LINE.CPP
/c /ZI /nologo /W3 /WX- /sdl /Od /Oy- /D _MBCS /Gm /EHsc /RTC1 /MDd /GS /fp:precise /Zc:wchar_t /Zc:forScope /Zc:inline /Fo"DEBUG\\" /Fd"DEBUG\VC140.PDB" /Gd /TP /analyze- C:\USERS\XUXIC\ONEDRIVE\PROJECT\CG-CS113\DRAWLINE\LINE.CPP
^C:\USERS\XUXIC\ONEDRIVE\PROJECT\CG-CS113\DRAWLINE\MAIN.CPP
/c /ZI /nologo /W3 /WX- /sdl /Od /Oy- /D _MBCS /Gm /EHsc /RTC1 /MDd /GS /fp:precise /Zc:wchar_t /Zc:forScope /Zc:inline /Fo"DEBUG\\" /Fd"DEBUG\VC140.PDB" /Gd /TP /analyze- C:\USERS\XUXIC\ONEDRIVE\PROJECT\CG-CS113\DRAWLINE\MAIN.CPP
^C:\USERS\XUXIC\ONEDRIVE\UIT\@PROJECTS\CG-CS113\DRAWLINE\LINE.CPP
/c /ZI /nologo /W3 /WX- /sdl /Od /Oy- /D _MBCS /Gm /EHsc /RTC1 /MDd /GS /fp:precise /Zc:wchar_t /Zc:forScope /Zc:inline /Fo"DEBUG\\" /Fd"DEBUG\VC140.PDB" /Gd /TP /analyze- C:\USERS\XUXIC\ONEDRIVE\UIT\@PROJECTS\CG-CS113\DRAWLINE\LINE.CPP
^C:\USERS\XUXIC\ONEDRIVE\UIT\@PROJECTS\CG-CS113\DRAWLINE\MAIN.CPP
/c /ZI /nologo /W3 /WX- /sdl /Od /Oy- /D _MBCS /Gm /EHsc /RTC1 /MDd /GS /fp:precise /Zc:wchar_t /Zc:forScope /Zc:inline /Fo"DEBUG\\" /Fd"DEBUG\VC140.PDB" /Gd /TP /analyze- C:\USERS\XUXIC\ONEDRIVE\UIT\@PROJECTS\CG-CS113\DRAWLINE\MAIN.CPP
^C:\USERS\XUXIC\ONEDRIVE\UIT\@PROJECTS\CG-CS113\DRAWLINE\CIRCLE.CPP
/c /ZI /nologo /W3 /WX- /sdl /Od /Oy- /D _MBCS /Gm /EHsc /RTC1 /MDd /GS /fp:precise /Zc:wchar_t /Zc:forScope /Zc:inline /Fo"DEBUG\\" /Fd"DEBUG\VC140.PDB" /Gd /TP /analyze- C:\USERS\XUXIC\ONEDRIVE\UIT\@PROJECTS\CG-CS113\DRAWLINE\CIRCLE.CPP
^C:\USERS\XUXIC\ONEDRIVE\UIT\@PROJECTS\CG-CS113\DRAWLINE\ELLIPSE.CPP
/c /ZI /nologo /W3 /WX- /sdl /Od /Oy- /D _MBCS /Gm /EHsc /RTC1 /MDd /GS /fp:precise /Zc:wchar_t /Zc:forScope /Zc:inline /Fo"DEBUG\\" /Fd"DEBUG\VC140.PDB" /Gd /TP /analyze- C:\USERS\XUXIC\ONEDRIVE\UIT\@PROJECTS\CG-CS113\DRAWLINE\ELLIPSE.CPP
^C:\USERS\XUXIC\ONEDRIVE\UIT\@PROJECTS\CG-CS113\DRAWLINE\PARABOL.CPP
/c /ZI /nologo /W3 /WX- /sdl /Od /Oy- /D _MBCS /Gm /EHsc /RTC1 /MDd /GS /fp:precise /Zc:wchar_t /Zc:forScope /Zc:inline /Fo"DEBUG\\" /Fd"DEBUG\VC140.PDB" /Gd /TP /analyze- C:\USERS\XUXIC\ONEDRIVE\UIT\@PROJECTS\CG-CS113\DRAWLINE\PARABOL.CPP
^C:\USERS\XUXIC\ONEDRIVE\UIT\@PROJECTS\CG-CS113\DRAWLINE\CLIPPING.CPP
/c /ZI /nologo /W3 /WX- /sdl /Od /Oy- /D _MBCS /Gm /EHsc /RTC1 /MDd /GS /fp:precise /Zc:wchar_t /Zc:forScope /Zc:inline /Fo"DEBUG\\" /Fd"DEBUG\VC140.PDB" /Gd /TP /analyze- C:\USERS\XUXIC\ONEDRIVE\UIT\@PROJECTS\CG-CS113\DRAWLINE\CLIPPING.CPP
^C:\USERS\XUXIC\ONEDRIVE\UIT\@PROJECTS\CG-CS113\DRAWLINE\DRAWPOLYGON.CPP
/c /ZI /nologo /W3 /WX- /sdl /Od /Oy- /D _MBCS /Gm /EHsc /RTC1 /MDd /GS /fp:precise /Zc:wchar_t /Zc:forScope /Zc:inline /Fo"DEBUG\\" /Fd"DEBUG\VC140.PDB" /Gd /TP /analyze- C:\USERS\XUXIC\ONEDRIVE\UIT\@PROJECTS\CG-CS113\DRAWLINE\DRAWPOLYGON.CPP
^C:\USERS\XUXIC\ONEDRIVE\UIT\@PROJECTS\CG-CS113\DRAWLINE\FILLCOLOR.CPP
/c /ZI /nologo /W3 /WX- /sdl /Od /Oy- /D _MBCS /Gm /EHsc /RTC1 /MDd /GS /fp:precise /Zc:wchar_t /Zc:forScope /Zc:inline /Fo"DEBUG\\" /Fd"DEBUG\VC140.PDB" /Gd /TP /analyze- C:\USERS\XUXIC\ONEDRIVE\UIT\@PROJECTS\CG-CS113\DRAWLINE\FILLCOLOR.CPP
^C:\USERS\XUXIC\ONEDRIVE\UIT\@PROJECTS\CG-CS113\DRAWLINE\BEZIER.CPP
/c /ZI /nologo /W3 /WX- /sdl /Od /Oy- /D _MBCS /Gm /EHsc /RTC1 /MDd /GS /fp:precise /Zc:wchar_t /Zc:forScope /Zc:inline /Fo"DEBUG\\" /Fd"DEBUG\VC140.PDB" /Gd /TP /analyze- C:\USERS\XUXIC\ONEDRIVE\UIT\@PROJECTS\CG-CS113\DRAWLINE\BEZIER.CPP
