^C:\USERS\XUXIC\ONEDRIVE\PROJECT\CG-CS113\DRAWLINE\DEBUG\LINE.OBJ|C:\USERS\XUXIC\ONEDRIVE\PROJECT\CG-CS113\DRAWLINE\DEBUG\MAIN.OBJ|C:\USERS\XUXIC\ONEDRIVE\PROJECT\CG-CS113\DRAWLINE\DEBUG\SDL.RES
/OUT:"C:\USERS\XUXIC\ONEDRIVE\PROJECT\CG-CS113\DEBUG\SDL.EXE" /INCREMENTAL /NOLOGO /LIBPATH:"C:\USERS\XUXIC\ONEDRIVE\PROJECT\CG-CS113\DRAWLINE\LIB\X86" SDL2.LIB SDL2MAIN.LIB KERNEL32.LIB USER32.LIB GDI32.LIB WINSPOOL.LIB COMDLG32.LIB ADVAPI32.LIB SHELL32.LIB OLE32.LIB OLEAUT32.LIB UUID.LIB ODBC32.LIB ODBCCP32.LIB KERNEL32.LIB USER32.LIB GDI32.LIB WINSPOOL.LIB COMDLG32.LIB ADVAPI32.LIB SHELL32.LIB OLE32.LIB OLEAUT32.LIB UUID.LIB ODBC32.LIB ODBCCP32.LIB /MANIFEST /MANIFESTUAC:"level='asInvoker' uiAccess='false'" /manifest:embed /Debug /PDB:"C:\USERS\XUXIC\ONEDRIVE\PROJECT\CG-CS113\DEBUG\SDL.PDB" /SUBSYSTEM:WINDOWS /TLBID:1 /DYNAMICBASE /NXCOMPAT /IMPLIB:"C:\USERS\XUXIC\ONEDRIVE\PROJECT\CG-CS113\DEBUG\SDL.LIB" /MACHINE:X86 DEBUG\SDL.RESDEBUG\LINE.OBJDEBUG\MAIN.OBJ
^C:\USERS\XUXIC\ONEDRIVE\UIT\@PROJECTS\CG-CS113\DRAWLINE\DEBUG\BEZIER.OBJ|C:\USERS\XUXIC\ONEDRIVE\UIT\@PROJECTS\CG-CS113\DRAWLINE\DEBUG\CIRCLE.OBJ|C:\USERS\XUXIC\ONEDRIVE\UIT\@PROJECTS\CG-CS113\DRAWLINE\DEBUG\CLIPPING.OBJ|C:\USERS\XUXIC\ONEDRIVE\UIT\@PROJECTS\CG-CS113\DRAWLINE\DEBUG\DRAWPOLYGON.OBJ|C:\USERS\XUXIC\ONEDRIVE\UIT\@PROJECTS\CG-CS113\DRAWLINE\DEBUG\ELLIPSE.OBJ|C:\USERS\XUXIC\ONEDRIVE\UIT\@PROJECTS\CG-CS113\DRAWLINE\DEBUG\FILLCOLOR.OBJ|C:\USERS\XUXIC\ONEDRIVE\UIT\@PROJECTS\CG-CS113\DRAWLINE\DEBUG\LINE.OBJ|C:\USERS\XUXIC\ONEDRIVE\UIT\@PROJECTS\CG-CS113\DRAWLINE\DEBUG\MAIN.OBJ|C:\USERS\XUXIC\ONEDRIVE\UIT\@PROJECTS\CG-CS113\DRAWLINE\DEBUG\PARABOL.OBJ|C:\USERS\XUXIC\ONEDRIVE\UIT\@PROJECTS\CG-CS113\DRAWLINE\DEBUG\SDL.RES
/OUT:"C:\USERS\XUXIC\ONEDRIVE\UIT\@PROJECTS\CG-CS113\DEBUG\SDL.EXE" /INCREMENTAL /NOLOGO /LIBPATH:"C:\USERS\XUXIC\ONEDRIVE\UIT\@PROJECTS\CG-CS113\DRAWLINE\LIB\X86" SDL2.LIB SDL2MAIN.LIB KERNEL32.LIB USER32.LIB GDI32.LIB WINSPOOL.LIB COMDLG32.LIB ADVAPI32.LIB SHELL32.LIB OLE32.LIB OLEAUT32.LIB UUID.LIB ODBC32.LIB ODBCCP32.LIB KERNEL32.LIB USER32.LIB GDI32.LIB WINSPOOL.LIB COMDLG32.LIB ADVAPI32.LIB SHELL32.LIB OLE32.LIB OLEAUT32.LIB UUID.LIB ODBC32.LIB ODBCCP32.LIB /MANIFEST /MANIFESTUAC:"level='asInvoker' uiAccess='false'" /manifest:embed /Debug /PDB:"C:\USERS\XUXIC\ONEDRIVE\UIT\@PROJECTS\CG-CS113\DEBUG\SDL.PDB" /SUBSYSTEM:CONSOLE /TLBID:1 /DYNAMICBASE /NXCOMPAT /IMPLIB:"C:\USERS\XUXIC\ONEDRIVE\UIT\@PROJECTS\CG-CS113\DEBUG\SDL.LIB" /MACHINE:X86 DEBUG\SDL.RESDEBUG\BEZIER.OBJDEBUG\CIRCLE.OBJDEBUG\CLIPPING.OBJDEBUG\DRAWPOLYGON.OBJDEBUG\ELLIPSE.OBJDEBUG\FILLCOLOR.OBJDEBUG\PARABOL.OBJDEBUG\LINE.OBJDEBUG\MAIN.OBJ
